<?xml version="1.0" encoding="utf-8"?>
<!-- Generator: Adobe Illustrator 17.0.0, SVG Export Plug-In . SVG Version: 6.00 Build 0)  -->
<!DOCTYPE svg PUBLIC "-//W3C//DTD SVG 1.1//EN" "http://www.w3.org/Graphics/SVG/1.1/DTD/svg11.dtd">
<svg version="1.1" id="Layer_1" xmlns="http://www.w3.org/2000/svg" xmlns:xlink="http://www.w3.org/1999/xlink" x="0px" y="0px"
	 width="125px" height="60px" viewBox="0 0 125 60" enable-background="new 0 0 125 60" xml:space="preserve">
<g>
	<path fill="#1D1D1B" d="M17.768,44.61c-2.781,0-5.441-0.665-6.711-1.149v13.542c0,0.665-0.665,1.33-1.33,1.33H4.83
		c-0.725,0-1.33-0.665-1.33-1.33V17.344c0-0.726,0.605-1.33,1.33-1.33h2.237c0.665,0,1.088,0.544,1.33,1.33l0.725,2.237
		c0,0,3.204-4.171,9.129-4.171c7.617,0,13.361,6.167,13.361,14.63C31.612,38.201,26.111,44.61,17.768,44.61z M11.057,36.146
		c0,0,2.297,1.572,5.804,1.572c4.595,0,6.952-3.748,6.952-7.678s-2.237-7.738-6.59-7.738c-3.627,0-5.562,2.297-6.167,3.869V36.146z"
		/>
	<path fill="#1D1D1B" d="M37.718,17.344c0-0.786,0.665-1.33,1.33-1.33h4.897c0.665,0,1.33,0.544,1.33,1.33v25.271
		c0,0.726-0.665,1.33-1.33,1.33h-4.897c-0.665,0-1.33-0.605-1.33-1.33V17.344z"/>
	<path fill="#1D1D1B" d="M50.715,41.889l8.887-12.152l-8.524-11.668c-0.725-0.907-0.181-2.056,0.967-2.056h5.502
		c0.907,0,1.632,0.06,2.297,0.967l4.655,7.315h0.121l4.776-7.315c0.544-0.786,1.149-0.967,2.116-0.967h5.925
		c1.209,0,1.511,1.149,0.786,2.056l-8.585,11.547l8.645,12.273c0.665,0.907,0.363,2.056-0.786,2.056h-5.804
		c-0.907,0-1.451-0.423-1.935-1.149l-5.139-7.678H64.5L59.058,43.4c-0.242,0.302-0.725,0.544-1.149,0.544h-6.288
		C50.413,43.945,50.111,42.796,50.715,41.889z"/>
	<path fill="#1D1D1B" d="M96.42,15.409c7.255,0,12.817,5.381,12.817,12.938c0,0.423-0.06,1.391-0.121,1.814
		c-0.06,0.725-0.725,1.269-1.33,1.269H89.89c0.06,3.446,2.902,6.469,6.952,6.469c2.781,0,4.716-1.028,5.985-2.056
		c0.665-0.544,1.391-0.605,1.814,0L107,38.987c0.484,0.544,0.544,1.209-0.121,1.814c-2.418,2.056-5.864,3.809-10.399,3.809
		c-8.343,0-14.147-6.65-14.147-14.63C82.333,22.12,88.137,15.409,96.42,15.409z M101.619,26.473
		c-0.121-2.721-2.297-4.837-5.381-4.837c-3.386,0-5.562,2.056-5.925,4.837H101.619z"/>
	<path fill="#1D1D1B" d="M114.979,2.955c0-0.665,0.665-1.33,1.33-1.33h4.897c0.665,0,1.33,0.665,1.33,1.33v39.659
		c0,0.726-0.665,1.33-1.33,1.33h-4.897c-0.665,0-1.33-0.605-1.33-1.33V2.955z"/>
	<path fill="#1D1D1B" d="M37.718,3.264c0-0.665,0.665-1.33,1.33-1.33h4.897c0.665,0,1.33,0.665,1.33,1.33V8.33
		c0,0.726-0.665,1.33-1.33,1.33h-4.897c-0.665,0-1.33-0.605-1.33-1.33V3.264z"/>
</g>
</svg>
